; Engine configuration file.
; It's best edited using the editor UI and not directly,
; since the parameters that go here are not all obvious.
;
; Format:
;   [section] ; section goes between []
;   param=value ; assign values to parameters

config_version=4

[application]

config/name="PodcastLinuxGame"
run/main_scene="res://level/level.tscn"
config/icon="res://icon.png"

[display]

window/size/width=320
window/size/height=240
window/stretch/mode="2d"
window/stretch/aspect="keep_width"

[gui]

common/drop_mouse_on_gui_input_disabled=true

[physics]

common/enable_pause_aware_picking=true

[rendering]

quality/driver/driver_name="GLES2"
vram_compression/import_etc=true
vram_compression/import_etc2=false
environment/default_environment="res://default_env.tres"
