[gd_scene load_steps=7 format=2]

[ext_resource path="res://door/door.png" type="Texture" id=1]
[ext_resource path="res://door/door.gd" type="Script" id=2]

[sub_resource type="Animation" id=1]
length = 0.001
tracks/0/type = "value"
tracks/0/path = NodePath("Sprite:frame")
tracks/0/interp = 1
tracks/0/loop_wrap = true
tracks/0/imported = false
tracks/0/enabled = true
tracks/0/keys = {
"times": PoolRealArray( 0 ),
"transitions": PoolRealArray( 1 ),
"update": 0,
"values": [ 0 ]
}

[sub_resource type="Animation" id=2]
resource_name = "idle"
length = 0.5
loop = true
tracks/0/type = "value"
tracks/0/path = NodePath("Sprite:frame")
tracks/0/interp = 1
tracks/0/loop_wrap = true
tracks/0/imported = false
tracks/0/enabled = true
tracks/0/keys = {
"times": PoolRealArray( 0 ),
"transitions": PoolRealArray( 1 ),
"update": 1,
"values": [ 0 ]
}

[sub_resource type="Animation" id=3]
resource_name = "open"
length = 0.3
loop = true
tracks/0/type = "value"
tracks/0/path = NodePath("Sprite:frame")
tracks/0/interp = 1
tracks/0/loop_wrap = true
tracks/0/imported = false
tracks/0/enabled = true
tracks/0/keys = {
"times": PoolRealArray( 0, 0.2 ),
"transitions": PoolRealArray( 1, 1 ),
"update": 1,
"values": [ 1, 2 ]
}

[sub_resource type="RectangleShape2D" id=4]
extents = Vector2( 6, 7.5 )

[node name="door" type="Area2D"]
z_index = -2
collision_layer = 0
script = ExtResource( 2 )

[node name="Sprite" type="Sprite" parent="."]
z_index = -1
texture = ExtResource( 1 )
hframes = 3

[node name="AnimationPlayer" type="AnimationPlayer" parent="."]
anims/RESET = SubResource( 1 )
anims/idle = SubResource( 2 )
anims/open = SubResource( 3 )

[node name="CollisionShape2D" type="CollisionShape2D" parent="."]
position = Vector2( 0, 0.5 )
z_index = -1
shape = SubResource( 4 )

[node name="AudioStreamPlayer" type="AudioStreamPlayer" parent="."]
